[
{
    "model": "polls.question",
    "pk": 1,
    "fields": {
        "question_text": "Quanto era buona la PyFiorentina?",
        "pub_date": "2016-04-11T14:21:29Z"
    }
},
{
    "model": "polls.question",
    "pk": 2,
    "fields": {
        "question_text": "Come valuti l'evento PyCon7?",
        "pub_date": "2016-04-11T14:27:03Z"
    }
},
{
    "model": "polls.choice",
    "pk": 1,
    "fields": {
        "question": 1,
        "choice_text": "Sono vegetariano!",
        "votes": 3
    }
},
{
    "model": "polls.choice",
    "pk": 2,
    "fields": {
        "question": 1,
        "choice_text": "Molto, da buon carnivoro.",
        "votes": 11
    }
},
{
    "model": "polls.choice",
    "pk": 3,
    "fields": {
        "question": 1,
        "choice_text": "Non lo so, non mi sono ancora ripreso dalla settima PyBirra :-(",
        "votes": 1
    }
},
{
    "model": "polls.choice",
    "pk": 4,
    "fields": {
        "question": 2,
        "choice_text": "E' stata l'esperienza pi\u00f9 bella della mia vita!",
        "votes": 22
    }
},
{
    "model": "polls.choice",
    "pk": 5,
    "fields": {
        "question": 2,
        "choice_text": "Buona, quasi quasi smetto di fare il lurker sulla lista di nodejs e inizio la lunga via del Pythonista!",
        "votes": 2
    }
},
{
    "model": "polls.choice",
    "pk": 6,
    "fields": {
        "question": 2,
        "choice_text": "Pessima, nessuno mi ha spiegato come scrivere un bel modulo per Wordpress.",
        "votes": 1
    }
}
]
